…
## Warning: Column `Neighbourhood` joining factors with different levels, coercing
## to character vector

Before comparing the data I wanted to summarize how many incidence of each type of crime were recorded throughout the years among all neighbourhoods. Through using summarize_all, I found that assults were the highest occuring crime, while homicides were the lowest occuring crime. I also used a summarize_if function, to determine which Neighbourhood had the highest total number of reported crimes. I found that Black Creek had the highest number of total crimes, with 6308 incidents reported.

crimeVhomic%>%select(Assault,AutoTheft,BreakandEnter,Robbery,TheftOver,Homicide) %>%summarize_all(n_distinct)

## # A tibble: 1 x 6
##   Assault AutoTheft BreakandEnter Robbery TheftOver Homicide
##     <int>     <int>         <int>   <int>     <int>    <int>
## 1     275        93           136      98        50        7

crimeVhomic%>%group_by(Neighbourhood)%>%mutate(tot_crime = (cumsum(Assault) + cumsum(AutoTheft) + cumsum(BreakandEnter) + cumsum(Robbery) + cumsum(TheftOver) +cumsum(Homicide)))%>%select(tot_crime,Neighbourhood)%>%summarize_if(is.numeric, list(max=max), na.rm=T)%>%arrange(desc(max))

## # A tibble: 237 x 2
##    Neighbourhood                      max
##    <chr>                            <dbl>
##  1 Black Creek                       6308
##  2 Cliffcrest                        5676
##  3 Ionview                           4338
##  4 Palmerston-Little Italy           3610
##  5 Willowridge-Martingrove-Richview  3567
##  6 The Beaches                       3263
##  7 Centennial Scarborough            3159
##  8 Scarborough Village               3149
##  9 Bathurst Manor                    2974
## 10 Rexdale-Kipling                   2909
## # … with 227 more rows
…
